MAC/rtl/mac/tb/test.vcd
$date
	Tue May  2 08:25:04 2017
$end
$version
	Icarus Verilog
$end
$timescale
	1ps
$end
$scope module mac_loopback_tb $end
$var wire 1 ! rx_error $end
$var wire 1 " tx_enable $end
$var wire 8 # tx_data [7:0] $end
$var wire 1 $ rx_data_valid $end
$var wire 8 % rx_data [7:0] $end
$var reg 1 & carrier_sense $end
$var reg 1 ' collision $end
$var reg 1 ( expected_tx_enable $end
$var reg 1 ) reset $end
$var reg 1 * rx_clock $end
$var reg 8 + tempdata [7:0] $end
$var reg 1 , tx_clock $end
$var integer 32 - i [31:0] $end
$scope module U_mac_loopback $end
$var wire 1 & carrier_sense $end
$var wire 1 ' collision $end
$var wire 1 ) reset $end
$var wire 1 * rx_clock $end
$var wire 1 ! rx_error $end
$var wire 1 , tx_clock $end
$var wire 1 " tx_enable $end
$var wire 8 . tx_data [7:0] $end
$var wire 1 $ rx_data_valid $end
$var wire 8 / rx_data [7:0] $end
$var wire 1 0 data_out_start $end
$var wire 1 1 data_out_end $end
$var wire 1 2 data_out_enable $end
$var wire 8 3 data_out [7:0] $end
$var wire 1 4 data_available $end
$scope module U_rx_sm $end
$var wire 1 * clock $end
$var wire 1 , data_out_clock $end
$var wire 1 5 data_out_reset $end
$var wire 10 6 data_out_reset_address [9:0] $end
$var wire 1 ) reset $end
$var wire 1 ! rx_error $end
$var wire 1 $ rx_data_valid $end
$var wire 8 7 rx_data [7:0] $end
$var wire 1 8 fifo_full $end
$var wire 11 9 fifo_count [10:0] $end
$var wire 1 0 data_out_start $end
$var wire 1 1 data_out_end $end
$var wire 1 2 data_out_enable $end
$var wire 10 : data_out_address [9:0] $end
$var wire 8 ; data_out [7:0] $end
$var wire 10 < data_in_address [9:0] $end
$var wire 32 = crc_out [31:0] $end
$var reg 1 > crc_init $end
$var reg 40 ? data [39:0] $end
$var reg 1 4 data_available $end
$var reg 16 @ data_counter [15:0] $end
$var reg 1 A data_enable $end
$var reg 10 B data_in_reset_address [9:0] $end
$var reg 1 C data_write_enable $end
$var reg 1 D end_of_frame $end
$var reg 1 E error $end
$var reg 16 F frame_length_counter [15:0] $end
$var reg 3 G next_state [2:0] $end
$var reg 1 H start_of_frame $end
$var reg 3 I state [2:0] $end
$var reg 1 J too_long $end
$var reg 1 K too_short $end
$scope module U_crc $end
$var wire 1 * clock $end
$var wire 1 A data_enable $end
$var wire 1 > init $end
$var wire 1 ) reset $end
$var wire 8 L temp [7:0] $end
$var wire 8 M data [7:0] $end
$var reg 32 N crc_out [31:0] $end
$scope function prev $end
$upscope $end
$scope begin genblk1 $end
$scope begin reverse_loop[0] $end
$upscope $end
$scope begin reverse_loop[1] $end
$upscope $end
$scope begin reverse_loop[2] $end
$upscope $end
$scope begin reverse_loop[3] $end
$upscope $end
$scope begin reverse_loop[4] $end
$upscope $end
$scope begin reverse_loop[5] $end
$upscope $end
$scope begin reverse_loop[6] $end
$upscope $end
$scope begin reverse_loop[7] $end
$upscope $end
$upscope $end
$scope begin loop[0] $end
$upscope $end
$scope begin loop[1] $end
$upscope $end
$scope begin loop[2] $end
$upscope $end
$scope begin loop[3] $end
$upscope $end
$scope begin loop[4] $end
$upscope $end
$scope begin loop[5] $end
$upscope $end
$scope begin loop[6] $end
$upscope $end
$scope begin loop[7] $end
$upscope $end
$scope begin loop[8] $end
$upscope $end
$scope begin loop[9] $end
$upscope $end
$scope begin loop[10] $end
$upscope $end
$scope begin loop[11] $end
$upscope $end
$scope begin loop[12] $end
$upscope $end
$scope begin loop[13] $end
$upscope $end
$scope begin loop[14] $end
$upscope $end
$scope begin loop[15] $end
$upscope $end
$scope begin loop[16] $end
$upscope $end
$scope begin loop[17] $end
$upscope $end
$scope begin loop[18] $end
$upscope $end
$scope begin loop[19] $end
$upscope $end
$scope begin loop[20] $end
$upscope $end
$scope begin loop[21] $end
$upscope $end
$scope begin loop[22] $end
$upscope $end
$scope begin loop[23] $end
$upscope $end
$scope begin loop[24] $end
$upscope $end
$scope begin loop[25] $end
$upscope $end
$scope begin loop[26] $end
$upscope $end
$scope begin loop[27] $end
$upscope $end
$scope begin loop[28] $end
$upscope $end
$scope begin loop[29] $end
$upscope $end
$scope begin loop[30] $end
$upscope $end
$scope begin loop[31] $end
$upscope $end
$upscope $end
$scope module U_fifo $end
$var wire 8 O data_in [7:0] $end
$var wire 1 * data_in_clock $end
$var wire 1 C data_in_enable $end
$var wire 1 D data_in_end $end
$var wire 1 E data_in_reset $end
$var wire 10 P data_in_reset_address [9:0] $end
$var wire 1 H data_in_start $end
$var wire 1 , data_out_clock $end
$var wire 1 5 data_out_reset $end
$var wire 10 Q data_out_reset_address [9:0] $end
$var wire 1 ) reset $end
$var wire 1 2 data_out_enable $end
$var reg 11 R count [10:0] $end
$var reg 10 S data_in_address [9:0] $end
$var reg 8 T data_out [7:0] $end
$var reg 10 U data_out_address [9:0] $end
$var reg 1 1 data_out_end $end
$var reg 1 0 data_out_start $end
$var reg 1 8 full $end
$upscope $end
$upscope $end
$scope module U_tx_sm $end
$var wire 1 & carrier_sense $end
$var wire 1 , clock $end
$var wire 1 ' collision $end
$var wire 8 V fifo_data [7:0] $end
$var wire 1 4 fifo_data_available $end
$var wire 1 1 fifo_data_end $end
$var wire 1 0 fifo_data_start $end
$var wire 1 W mode $end
$var wire 1 ) reset $end
$var wire 1 X random_trigger $end
$var wire 32 Y crc_rev [31:0] $end
$var wire 32 Z crc_out [31:0] $end
$var reg 1 [ crc_enable $end
$var reg 1 \ crc_enable_tmp $end
$var reg 1 ] crc_init $end
$var reg 1 2 fifo_data_read $end
$var reg 1 ^ fifo_retry $end
$var reg 8 _ frame_length_count [7:0] $end
$var reg 4 ` inter_frame_gap_count [3:0] $end
$var reg 5 a jam_length_count [4:0] $end
$var reg 4 b next_state [3:0] $end
$var reg 6 c padding_length_count [5:0] $end
$var reg 4 d preamble_count [3:0] $end
$var reg 4 e prev_state [3:0] $end
$var reg 1 f random_init $end
$var reg 4 g retry_count [3:0] $end
$var reg 4 h state [3:0] $end
$var reg 8 i tx_data [7:0] $end
$var reg 8 j tx_data_tmp [7:0] $end
$var reg 1 " tx_enable $end
$var integer 32 k crc_index [31:0] $end
$scope begin crc_reverse[0] $end
$upscope $end
$scope begin crc_reverse[1] $end
$upscope $end
$scope begin crc_reverse[2] $end
$upscope $end
$scope begin crc_reverse[3] $end
$upscope $end
$scope begin crc_reverse[4] $end
$upscope $end
$scope begin crc_reverse[5] $end
$upscope $end
$scope begin crc_reverse[6] $end
$upscope $end
$scope begin crc_reverse[7] $end
$upscope $end
$scope begin crc_reverse[8] $end
$upscope $end
$scope begin crc_reverse[9] $end
$upscope $end
$scope begin crc_reverse[10] $end
$upscope $end
$scope begin crc_reverse[11] $end
$upscope $end
$scope begin crc_reverse[12] $end
$upscope $end
$scope begin crc_reverse[13] $end
$upscope $end
$scope begin crc_reverse[14] $end
$upscope $end
$scope begin crc_reverse[15] $end
$upscope $end
$scope begin crc_reverse[16] $end
$upscope $end
$scope begin crc_reverse[17] $end
$upscope $end
$scope begin crc_reverse[18] $end
$upscope $end
$scope begin crc_reverse[19] $end
$upscope $end
$scope begin crc_reverse[20] $end
$upscope $end
$scope begin crc_reverse[21] $end
$upscope $end
$scope begin crc_reverse[22] $end
$upscope $end
$scope begin crc_reverse[23] $end
$upscope $end
$scope begin crc_reverse[24] $end
$upscope $end
$scope begin crc_reverse[25] $end
$upscope $end
$scope begin crc_reverse[26] $end
$upscope $end
$scope begin crc_reverse[27] $end
$upscope $end
$scope begin crc_reverse[28] $end
$upscope $end
$scope begin crc_reverse[29] $end
$upscope $end
$scope begin crc_reverse[30] $end
$upscope $end
$scope begin crc_reverse[31] $end
$upscope $end
$scope module U_crc $end
$var wire 1 , clock $end
$var wire 8 l data [7:0] $end
$var wire 1 [ data_enable $end
$var wire 1 ] init $end
$var wire 1 ) reset $end
$var wire 8 m temp [7:0] $end
$var reg 32 n crc_out [31:0] $end
$scope function prev $end
$upscope $end
$scope begin genblk1 $end
$scope begin reverse_loop[0] $end
$upscope $end
$scope begin reverse_loop[1] $end
$upscope $end
$scope begin reverse_loop[2] $end
$upscope $end
$scope begin reverse_loop[3] $end
$upscope $end
$scope begin reverse_loop[4] $end
$upscope $end
$scope begin reverse_loop[5] $end
$upscope $end
$scope begin reverse_loop[6] $end
$upscope $end
$scope begin reverse_loop[7] $end
$upscope $end
$upscope $end
$scope begin loop[0] $end
$upscope $end
$scope begin loop[1] $end
$upscope $end
$scope begin loop[2] $end
$upscope $end
$scope begin loop[3] $end
$upscope $end
$scope begin loop[4] $end
$upscope $end
$scope begin loop[5] $end
$upscope $end
$scope begin loop[6] $end
$upscope $end
$scope begin loop[7] $end
$upscope $end
$scope begin loop[8] $end
$upscope $end
$scope begin loop[9] $end
$upscope $end
$scope begin loop[10] $end
$upscope $end
$scope begin loop[11] $end
$upscope $end
$scope begin loop[12] $end
$upscope $end
$scope begin loop[13] $end
$upscope $end
$scope begin loop[14] $end
$upscope $end
$scope begin loop[15] $end
$upscope $end
$scope begin loop[16] $end
$upscope $end
$scope begin loop[17] $end
$upscope $end
$scope begin loop[18] $end
$upscope $end
$scope begin loop[19] $end
$upscope $end
$scope begin loop[20] $end
$upscope $end
$scope begin loop[21] $end
$upscope $end
$scope begin loop[22] $end
$upscope $end
$scope begin loop[23] $end
$upscope $end
$scope begin loop[24] $end
$upscope $end
$scope begin loop[25] $end
$upscope $end
$scope begin loop[26] $end
$upscope $end
$scope begin loop[27] $end
$upscope $end
$scope begin loop[28] $end
$upscope $end
$scope begin loop[29] $end
$upscope $end
$scope begin loop[30] $end
$upscope $end
$scope begin loop[31] $end
$upscope $end
$upscope $end
$scope module U_random_gen $end
$var wire 1 , clock $end
$var wire 1 f init $end
$var wire 1 ) reset $end
$var wire 4 o retry_count [3:0] $end
$var reg 10 p random [9:0] $end
$var reg 10 q random_counter [9:0] $end
$var reg 10 r random_sequence [9:0] $end
$var reg 8 s slot_time_counter [7:0] $end
$var reg 1 X trigger $end
$upscope $end
$upscope $end
$upscope $end
$scope module data_in $end
$var wire 1 * clock $end
$var wire 8 t data_in [7:0] $end
$var reg 1 u data_in_enable $end
$var reg 8 v data_out [7:0] $end
$var reg 1 $ data_out_enable $end
$var integer 32 w fails [31:0] $end
$var integer 32 x passes [31:0] $end
$scope task assert $end
$var reg 1 y condition $end
$var reg 801 z message [800:0] $end
$upscope $end
$scope task display $end
$upscope $end
$scope task sync_assert $end
$var reg 1 { condition $end
$var reg 801 | message [800:0] $end
$upscope $end
$scope task sync_read $end
$var reg 8 } data [7:0] $end
$upscope $end
$scope task sync_write $end
$var reg 8 ~ data [7:0] $end
$upscope $end
$upscope $end
$scope module data_out $end
$var wire 1 , clock $end
$var wire 8 !" data_in [7:0] $end
$var reg 1 "" data_in_enable $end
$var reg 8 #" data_out [7:0] $end
$var reg 1 $" data_out_enable $end
$var integer 32 %" fails [31:0] $end
$var integer 32 &" passes [31:0] $end
$scope task assert $end
$var reg 1 '" condition $end
$var reg 801 (" message [800:0] $end
$upscope $end
$scope task display $end
$upscope $end
$scope task sync_assert $end
$var reg 1 )" condition $end
$var reg 801 *" message [800:0] $end
$upscope $end
$scope task sync_read $end
$var reg 8 +" data [7:0] $end
$upscope $end
$scope task sync_write $end
$var reg 8 ," data [7:0] $end
$upscope $end
$upscope $end
$scope module tx_enable_monitor $end
$var wire 1 , clock $end
$var wire 1 " data $end
$var wire 1 ( expected $end
$upscope $end
$scope module util $end
$var wire 1 -" clock $end
$var wire 1 ." data_in $end
$var reg 1 /" data_in_enable $end
$var reg 1 0" data_out $end
$var reg 1 1" data_out_enable $end
$var integer 32 2" fails [31:0] $end
$var integer 32 3" passes [31:0] $end
$scope task assert $end
$var reg 1 4" condition $end
$var reg 801 5" message [800:0] $end
$upscope $end
$scope task display $end
$upscope $end
$scope task sync_assert $end
$var reg 1 6" condition $end
$var reg 801 7" message [800:0] $end
$upscope $end
$scope task sync_read $end
$var reg 1 8" data $end
$upscope $end
$scope task sync_write $end
$var reg 1 9" data $end
$upscope $end
$upscope $end
$upscope $end
$enddefinitions $end
#0
$dumpvars
x9"
x8"
bx 7"
x6"
bx 5"
x4"
b0 3"
b0 2"
01"
00"
0/"
0."
z-"
bx ,"
bx +"
bx *"
x)"
bx ("
x'"
b0 &"
b0 %"
0$"
b0 #"
0""
bx !"
bx ~
bx }
bx |
x{
bx z
xy
b0 x
b0 w
b0 v
0u
bz t
b0 s
b0 r
b0 q
b0 p
b0 o
bx n
bx m
bx l
bx k
bx j
bx i
b0 h
b0 g
0f
bx e
b0 d
b0 c
b1 b
b0 a
b0 `
b0 _
0^
0]
0\
x[
bx Z
bx Y
1X
1W
b0 V
b0 U
b0 T
b0 S
b0 R
bz Q
bx P
b0 O
bx N
b0 M
b0 L
1K
0J
b0 I
0H
b0 G
b0 F
0E
0D
0C
bx B
0A
b0 @
b0 ?
0>
bx =
b0 <
b0 ;
b0 :
b0 9
x8
b0 7
bz 6
z5
04
b0 3
02
x1
x0
b0 /
bx .
bx -
0,
bx +
0*
1)
0(
0'
0&
b0 %
0$
bx #
x"
z!
$end
#5000
b0 m
b0 j
b0 l
b0 k
0[
08
b11111111111111111111111111111111 Y
b11111111111111111111111111111111 Z
b11111111111111111111111111111111 n
b11111111111111111111111111111111 =
b11111111111111111111111111111111 N
1,
1*
#10000
0,
0*
#15000
b1 p
0"
b1 r
b0 #
b0 .
b0 i
b0 !"
b1 I
b1 h
b0 e
b10101010 L
b1 G
1,
1*
1$
b1010101 %
b1010101 /
b1010101 7
b1010101 M
b1010101 v
b1010101 ~
b0 -
0)
#16000
b1 -
b1010101 %
b1010101 /
b1010101 7
b1010101 M
b1010101 v
1$
#20000
0,
0*
#25000
b1 `
b11 r
b1010101 ?
b1 e
1,
1*
#26000
b10 -
b1010101 %
b1010101 /
b1010101 7
b1010101 M
b1010101 v
1$
#30000
0,
0*
#35000
b111 r
b10 `
b101010101010101 ?
1,
1*
#36000
b11 -
b1010101 %
b1010101 /
b1010101 7
b1010101 M
b1010101 v
1$
#40000
0,
0*
#45000
b0 p
b11 `
b1110 r
b10101010101010101010101 ?
1,
1*
#46000
b100 -
b1010101 %
b1010101 /
b1010101 7
b1010101 M
b1010101 v
1$
#50000
0,
0*
#55000
b11100 r
b100 `
b1010101010101010101010101010101 ?
1,
1*
#56000
b101 -
b1010101 %
b1010101 /
b1010101 7
b1010101 M
b1010101 v
1$
#60000
0,
0*
#65000
b1010101 O
b101 `
b111000 r
b101010101010101010101010101010101010101 ?
1,
1*
#66000
b110 -
b1010101 %
b1010101 /
b1010101 7
b1010101 M
b1010101 v
1$
#70000
0,
0*
#75000
b1 p
b1110001 r
b110 `
1,
1*
#76000
b0 B
b0 P
1>
b10101011 L
b10 G
b11010101 ~
b111 -
b11010101 %
b11010101 /
b11010101 7
b11010101 M
b11010101 v
1$
#80000
0,
0*
#85000
0>
1A
b111 `
b11100011 r
b101010101010101010101010101010111010101 ?
b10 I
1,
1*
#86000
b11111111 L
b11111111 ~
b1000 -
b11111111 %
b11111111 /
b11111111 7
b11111111 M
b11111111 v
1$
#90000
0,
0*
#95000
b10 b
b111000111 r
b1000 `
b11111111111111111111111100000000 =
b11111111111111111111111100000000 N
b101010101010101010101011101010111111111 ?
b1 @
b1 F
1,
1*
#96000
b1001 -
b11111111 %
b11111111 /
b11111111 7
b11111111 M
b11111111 v
1$
#100000
0,
0*
#105000
b0 p
b0 `
b1110001110 r
b11111111111111110000000000000000 =
b11111111111111110000000000000000 N
b101010101010101110101011111111111111111 ?
b10 h
b10 F
b10 @
1,
1*
#106000
b1010 -
b11111111 %
b11111111 /
b11111111 7
b11111111 M
b11111111 v
1$
#110000
0,
0*
#115000
b1 p
b1100011101 r
b11111111000000000000000000000000 =
b11111111000000000000000000000000 N
b101010111010101111111111111111111111111 ?
b10 e
b11 @
b11 F
1,
1*
#116000
b1011 -
b11111111 %
b11111111 /
b11111111 7
b11111111 M
b11111111 v
1$
#120000
0,
0*
#125000
b11010101 O
b1000111011 r
b0 =
b0 N
b1101010111111111111111111111111111111111 ?
b100 F
b100 @
1,
1*
#126000
b1100 -
b11111111 %
b11111111 /
b11111111 7
b11111111 M
b11111111 v
1$
#130000
0,
0*
#135000
b0 p
b11111111 O
b1110110 r
b10110001111101110100000010110100 =
b10110001111101110100000010110100 N
b1111111111111111111111111111111111111111 ?
1H
1C
b101 @
b101 F
1,
1*
#136000
b1101 -
b11111111 %
b11111111 /
b11111111 7
b11111111 M
b11111111 v
1$
#140000
0,
0*
#145000
b11101100 r
b11111111010010000110010001111101 =
b11111111010010000110010001111101 N
b1 <
b1 S
b1 9
b1 R
0H
b110 F
b110 @
1,
1*
#146000
b1011 L
b11010000 ~
b1110 -
b11010000 %
b11010000 /
b11010000 7
b11010000 M
b11010000 v
1$
#150000
0,
0*
#155000
b111011000 r
b11010010110110001111011011010101 =
b11010010110110001111011011010101 N
b10 <
b10 S
b10 9
b10 R
b1111111111111111111111111111111111010000 ?
b111 @
b111 F
1,
1*
#156000
b1010 L
b1010000 ~
b1111 -
b1010000 %
b1010000 /
b1010000 7
b1010000 M
b1010000 v
1$
#160000
0,
0*
#165000
b1 p
b1110110001 r
b11101111011001010111001101010001 =
b11101111011001010111001101010001 N
b1111111111111111111111111101000001010000 ?
b11 <
b11 S
b11 9
b11 R
b1000 F
b1000 @
1,
1*
#166000
b10011001 L
b10011001 ~
b10000 -
b10011001 %
b10011001 /
b10011001 7
b10011001 M
b10011001 v
1$
#170000
0,
0*
#175000
b0 p
b1101100010 r
b10011111010000010000000101010101 =
b10011111010000010000000101010101 N
b100 <
b100 S
b100 9
b100 R
b1111111111111111110100000101000010011001 ?
b1001 @
b1001 F
1,
1*
#176000
b11001 L
b10011000 ~
b10001 -
b10011000 %
b10011000 /
b10011000 7
b10011000 M
b10011000 v
1$
#180000
0,
0*
#185000
b1011000100 r
b110010100010111111100001011100 =
b110010100010111111100001011100 N
b1111111111010000010100001001100110011000 ?
b101 <
b101 S
b101 9
b101 R
b1010 F
b1010 @
1,
1*
#186000
b1101001 L
b10010110 ~
b10010 -
b10010110 %
b10010110 /
b10010110 7
b10010110 M
b10010110 v
1$
#190000
0,
0*
#195000
b1 p
b11010000 O
b110001001 r
b11011000001001000011110001100110 =
b11011000001001000011110001100110 N
b110 <
b110 S
b110 9
b110 R
b1101000001010000100110011001100010010110 ?
b1011 @
b1011 F
1,
1*
#196000
b110001 L
b10001100 ~
b10011 -
b10001100 %
b10001100 /
b10001100 7
b10001100 M
b10001100 v
1$
#200000
0,
0*
#205000
b1010000 O
b1100010011 r
b11000011010111001011000001110110 =
b11000011010111001011000001110110 N
b101000010011001100110001001011010001100 ?
b111 <
b111 S
b111 9
b111 R
b1100 F
b1100 @
1,
1*
#206000
b10000 L
b1000 ~
b10100 -
b1000 %
b1000 /
b1000 7
b1000 M
b1000 v
1$
#210000
0,
0*
#215000
b0 p
b10011001 O
b1000100110 r
b1000000011010000001101100110000 =
b1000000011010000001101100110000 N
b1000 <
b1000 S
b1000 9
b1000 R
b1001100110011000100101101000110000001000 ?
b1101 @
b1101 F
1,
1*
#216000
b0 L
b0 ~
b10101 -
b0 %
b0 /
b0 7
b0 M
b0 v
1$
#220000
0,
0*
#225000
b1 p
b10011000 O
b1001101 r
b1011100100111010100000001110111 =
b1011100100111010100000001110111 N
b1001100010010110100011000000100000000000 ?
b1001 <
b1001 S
b1001 9
b1001 R
b1110 F
b1110 @
1,
1*
#226000
b10100010 L
b1000101 %
b1000101 /
b1000101 7
b1000101 M
b1000101 v
b1000101 ~
b10110 -
1$
#230000
0,
0*
#235000
b0 p
b10010110 O
b10011010 r
b101000011101100010101000000011 =
b101000011101100010101000000011 N
b1010 <
b1010 S
b1010 9
b1010 R
b1001011010001100000010000000000001000101 ?
b1111 @
b1111 F
1,
1*
#236000
b0 L
b0 ~
b10111 -
b0 %
b0 /
b0 7
b0 M
b0 v
1$
#240000
0,
0*
#245000
b1 p
b10001100 O
b100110101 r
b11001000000000010101100001011000 =
b11001000000000010101100001011000 N
b1000110000001000000000000100010100000000 ?
b1011 <
b1011 S
b1011 9
b1011 R
b10000 F
b10000 @
1,
1*
#246000
b11000 -
1$
#250000
0,
0*
#255000
b0 p
b1000 O
b1001101010 r
b1111010110110100010010100100001 =
b1111010110110100010010100100001 N
b1100 <
b1100 S
b1100 9
b1100 R
b100000000000010001010000000000000000 ?
b10001 @
b10001 F
1,
1*
#256000
b1110010 L
b1001110 %
b1001110 /
b1001110 7
b1001110 M
b1001110 v
b1001110 ~
b11001 -
1$
#260000
0,
0*
#265000
b0 O
b11010100 r
b11111100001011011100110010111000 =
b11111100001011011100110010111000 N
b1000101000000000000000001001110 ?
b1101 <
b1101 S
b1101 9
b1101 R
b10010 F
b10010 @
1,
1*
#266000
b1000100 L
b100010 ~
b11010 -
b100010 %
b100010 /
b100010 7
b100010 M
b100010 v
1$
#270000
0,
0*
#275000
b1000101 O
b110101000 r
b10110110111110101101100011000110 =
b10110110111110101101100011000110 N
b1110 <
b1110 S
b1110 9
b1110 R
b100010100000000000000000100111000100010 ?
b10011 @
b10011 F
1,
1*
#276000
b10110100 L
b101101 ~
b11011 -
b101101 %
b101101 /
b101101 7
b101101 M
b101101 v
1$
#280000
0,
0*
#285000
b1 p
b0 O
b1101010001 r
b11110011010110101111110101101110 =
b11110011010110101111110101101110 N
b10011100010001000101101 ?
b1111 <
b1111 S
b1111 9
b1111 R
b10100 F
b10100 @
1,
1*
#286000
b0 L
b0 ~
b11100 -
b0 %
b0 /
b0 7
b0 M
b0 v
1$
#290000
0,
0*
#295000
b0 p
b1010100010 r
b11011110000001101011010111010000 =
b11011110000001101011010111010000 N
b10000 <
b10000 S
b10000 9
b10000 R
b1001110001000100010110100000000 ?
b10101 @
b10101 F
1,
1*
#296000
b11101 -
1$
#300000
0,
0*
#305000
b1001110 O
b101000100 r
b101011101000000011101111100011 =
b101011101000000011101111100011 N
b100111000100010001011010000000000000000 ?
b10001 <
b10001 S
b10001 9
b10001 R
b10110 F
b10110 @
1,
1*
#306000
b1 L
b10000000 %
b10000000 /
b10000000 7
b10000000 M
b10000000 v
b10000000 ~
b11110 -
1$
#310000
0,
0*
#315000
b100010 O
b1010001000 r
b10111100100101000001100110110 =
b10111100100101000001100110110 N
b10010 <
b10010 S
b10010 9
b10010 R
b10001000101101000000000000000010000000 ?
b10111 @
b10111 F
1,
1*
#316000
b10001000 L
b10001 ~
b11111 -
b10001 %
b10001 /
b10001 7
b10001 M
b10001 v
1$
#320000
0,
0*
#325000
b101101 O
b100010000 r
b10001111110100011011000000100011 =
b10001111110100011011000000100011 N
b10110100000000000000001000000000010001 ?
b10011 <
b10011 S
b10011 9
b10011 R
b11000 F
b11000 @
1,
1*
#326000
b10101111 L
b11110101 ~
b100000 -
b11110101 %
b11110101 /
b11110101 7
b11110101 M
b11110101 v
1$
#330000
0,
0*
#335000
b1 p
b0 O
b1000100001 r
b1001001100100111001010111100000 =
b1001001100100111001010111100000 N
b10100 <
b10100 S
b10100 9
b10100 R
b100000000001000111110101 ?
b11001 @
b11001 F
1,
1*
#336000
b10000100 L
b100001 ~
b100001 -
b100001 %
b100001 /
b100001 7
b100001 M
b100001 v
1$
#340000
0,
0*
#345000
b0 p
b1000010 r
b11111111110100101111011001001010 =
b11111111110100101111011001001010 N
b10000000000100011111010100100001 ?
b10101 <
b10101 S
b10101 9
b10101 R
b11010 F
b11010 @
1,
1*
#346000
b10010101 L
b10101001 ~
b100010 -
b10101001 %
b10101001 /
b10101001 7
b10101001 M
b10101001 v
1$
#350000
0,
0*
#355000
b1 p
b10000000 O
b10000101 r
b1010001110110010101101001000001 =
b1010001110110010101101001000001 N
b10110 <
b10110 S
b10110 9
b10110 R
b1000000000010001111101010010000110101001 ?
b11011 @
b11011 F
1,
1*
#356000
b1111111 L
b11111110 ~
b100011 -
b11111110 %
b11111110 /
b11111110 7
b11111110 M
b11111110 v
1$
#360000
0,
0*
#365000
b0 p
b10001 O
b100001010 r
b1111101111101110101011111101010 =
b1111101111101110101011111101010 N
b1000111110101001000011010100111111110 ?
b10111 <
b10111 S
b10111 9
b10111 R
b11100 F
b11100 @
1,
1*
#366000
b11110011 L
b11001111 ~
b100100 -
b11001111 %
b11001111 /
b11001111 7
b11001111 M
b11001111 v
1$
#370000
0,
0*
#375000
b1 p
b11110101 O
b1000010101 r
b10100010110101011010101011100100 =
b10100010110101011010101011100100 N
b11000 <
b11000 S
b11000 9
b11000 R
b1111010100100001101010011111111011001111 ?
b11101 @
b11101 F
1,
1*
#376000
b11001010 L
b1010011 ~
b100101 -
b1010011 %
b1010011 /
b1010011 7
b1010011 M
b1010011 v
1$
#380000
0,
0*
#385000
b100001 O
b101011 r
b1011111000001111100111100101111 =
b1011111000001111100111100101111 N
b10000110101001111111101100111101010011 ?
b11001 <
b11001 S
b11001 9
b11001 R
b11110 F
b11110 @
1,
1*
#386000
b10010101 L
b10101001 ~
b100110 -
b10101001 %
b10101001 /
b10101001 7
b10101001 M
b10101001 v
1$
#390000
0,
0*
#395000
b10101001 O
b1010111 r
b1110101110011110110100101001111 =
b1110101110011110110100101001111 N
b11010 <
b11010 S
b11010 9
b11010 R
b1010100111111110110011110101001110101001 ?
b11111 @
b11111 F
1,
1*
#396000
b1111111 L
b11111110 ~
b100111 -
b11111110 %
b11111110 /
b11111110 7
b11111110 M
b11111110 v
1$
#400000
0,
0*
#405000
b0 p
b11111110 O
b10101110 r
b11100000111000111001100111010110 =
b11100000111000111001100111010110 N
b1111111011001111010100111010100111111110 ?
b11011 <
b11011 S
b11011 9
b11011 R
b100000 F
b100000 @
1,
1*
#406000
b11111111 L
b11111111 ~
b101000 -
b11111111 %
b11111111 /
b11111111 7
b11111111 M
b11111111 v
1$
#410000
0,
0*
#415000
b11001111 O
b101011100 r
b10010111110001111011000011001101 =
b10010111110001111011000011001101 N
b11100 <
b11100 S
b11100 9
b11100 R
b1100111101010011101010011111111011111111 ?
b100001 @
b100001 F
1,
1*
#416000
b101001 -
b11111111 %
b11111111 /
b11111111 7
b11111111 M
b11111111 v
1$
#420000
0,
0*
#425000
b1010011 O
b1010111000 r
b1001101000111011110011000101111 =
b1001101000111011110011000101111 N
b101001110101001111111101111111111111111 ?
b11101 <
b11101 S
b11101 9
b11101 R
b100010 F
b100010 @
1,
1*
#426000
b0 L
b0 ~
b101010 -
b0 %
b0 /
b0 7
b0 M
b0 v
1$
#430000
0,
0*
#435000
b10101001 O
b101110000 r
b11000101011011101100110100100 =
b11000101011011101100110100100 N
b11110 <
b11110 S
b11110 9
b11110 R
b1010100111111110111111111111111100000000 ?
b100011 @
b100011 F
1,
1*
#436000
b10010001 L
b10001001 %
b10001001 /
b10001001 7
b10001001 M
b10001001 v
b10001001 ~
b101011 -
1$
#440000
0,
0*
#445000
b1 p
b11111110 O
b1011100001 r
b11100110000111001011010011100001 =
b11100110000111001011010011100001 N
b1111111011111111111111110000000010001001 ?
b11111 <
b11111 S
b11111 9
b11111 R
b100100 F
b100100 @
1,
1*
#446000
b0 L
b0 ~
b101100 -
b0 %
b0 /
b0 7
b0 M
b0 v
1$
#450000
0,
0*
#455000
b0 p
b11111111 O
b111000010 r
b11000011100110111000101011001011 =
b11000011100110111000101011001011 N
b100000 <
b100000 S
b100000 9
b100000 R
b1111111111111111000000001000100100000000 ?
b100101 @
b100101 F
1,
1*
#456000
b10010001 L
b10001001 %
b10001001 /
b10001001 7
b10001001 M
b10001001 v
b10001001 ~
b101101 -
1$
#460000
0,
0*
#465000
b1 p
b1110000101 r
b11101010100111110101101101101001 =
b11101010100111110101101101101001 N
b1111111100000000100010010000000010001001 ?
b100001 <
b100001 S
b100001 9
b100001 R
b100110 F
b100110 @
1,
1*
#466000
b0 L
b0 ~
b101110 -
b0 %
b0 /
b0 7
b0 M
b0 v
1$
#470000
0,
0*
#475000
b0 O
b1100001011 r
b1110101011110001001100110101111 =
b1110101011110001001100110101111 N
b100010 <
b100010 S
b100010 9
b100010 R
b10001001000000001000100100000000 ?
b100111 @
b100111 F
1,
1*
#476000
b1011100 L
b111010 %
b111010 /
b111010 7
b111010 M
b111010 v
b111010 ~
b101111 -
1$
#480000
0,
0*
#485000
b0 p
b10001001 O
b1000010110 r
b11000010011100111110100111101111 =
b11000010011100111110100111101111 N
b1000100100000000100010010000000000111010 ?
b100011 <
b100011 S
b100011 9
b100011 R
b101000 F
b101000 @
1,
1*
#486000
b1011110 L
b1111010 ~
b110000 -
b1111010 %
b1111010 /
b1111010 7
b1111010 M
b1111010 v
1$
#490000
0,
0*
#495000
b1 p
b0 O
b101101 r
b1100011111110000100111111111010 =
b1100011111110000100111111111010 N
b100100 <
b100100 S
b100100 9
b100100 R
b10001001000000000011101001111010 ?
b101001 @
b101001 F
1,
1*
#496000
b1010101 L
b10101010 ~
b110001 -
b10101010 %
b10101010 /
b10101010 7
b10101010 M
b10101010 v
1$
#500000
0,
0*
#505000
b0 p
b10001001 O
b1011010 r
b110110111110111101101000100010 =
b110110111110111101101000100010 N
b1000100100000000001110100111101010101010 ?
b100101 <
b100101 S
b100101 9
b100101 R
b101010 F
b101010 @
1,
1*
#506000
b1101 L
b10110000 ~
b110010 -
b10110000 %
b10110000 /
b10110000 7
b10110000 M
b10110000 v
1$
#510000
0,
0*
#515000
b1 p
b0 O
b10110101 r
b100101000111000010011110001 =
b100101000111000010011110001 N
b100110 <
b100110 S
b100110 9
b100110 R
b111010011110101010101010110000 ?
b101011 @
b101011 F
1,
1*
#516000
b11010111 L
b11101011 ~
b110011 -
b11101011 %
b11101011 /
b11101011 7
b11101011 M
b11101011 v
1$
#520000
0,
0*
