MAC/rtl/mac/rx/tb/test.vcd
$date
	Tue May  2 01:16:06 2017
$end
$version
	Icarus Verilog
$end
$timescale
	1ps
$end
$scope module rx_sm_tb $end
$var wire 1 ! rx_data_valid $end
$var wire 8 " rx_data [7:0] $end
$var wire 1 # fifo_full $end
$var wire 1 $ data_out_start_sig $end
$var wire 8 % data_out_sig [7:0] $end
$var wire 1 & data_out_end_sig $end
$var wire 1 ' data_out_enable $end
$var wire 1 ( data_available $end
$var reg 1 ) clock $end
$var reg 1 * data_out_clock $end
$var reg 1 + reset $end
$var reg 1 , rx_error $end
$var reg 8 - tempdata [7:0] $end
$var reg 1 . tempend $end
$var reg 1 / tempstart $end
$var integer 32 0 i [31:0] $end
$scope module U_rx_sm $end
$var wire 1 ) clock $end
$var wire 1 * data_out_clock $end
$var wire 1 1 data_out_reset $end
$var wire 10 2 data_out_reset_address [9:0] $end
$var wire 1 + reset $end
$var wire 1 , rx_error $end
$var wire 1 ! rx_data_valid $end
$var wire 8 3 rx_data [7:0] $end
$var wire 1 # fifo_full $end
$var wire 11 4 fifo_count [10:0] $end
$var wire 1 $ data_out_start $end
$var wire 1 & data_out_end $end
$var wire 1 ' data_out_enable $end
$var wire 10 5 data_out_address [9:0] $end
$var wire 8 6 data_out [7:0] $end
$var wire 10 7 data_in_address [9:0] $end
$var wire 32 8 crc_out [31:0] $end
$var reg 1 9 crc_init $end
$var reg 40 : data [39:0] $end
$var reg 1 ( data_available $end
$var reg 16 ; data_counter [15:0] $end
$var reg 1 < data_enable $end
$var reg 10 = data_in_reset_address [9:0] $end
$var reg 1 > data_write_enable $end
$var reg 1 ? end_of_frame $end
$var reg 1 @ error $end
$var reg 16 A frame_length_counter [15:0] $end
$var reg 3 B next_state [2:0] $end
$var reg 1 C start_of_frame $end
$var reg 3 D state [2:0] $end
$var reg 1 E too_long $end
$var reg 1 F too_short $end
$scope module U_crc $end
$var wire 1 ) clock $end
$var wire 1 < data_enable $end
$var wire 1 9 init $end
$var wire 1 + reset $end
$var wire 8 G temp [7:0] $end
$var wire 8 H data [7:0] $end
$var reg 32 I crc_out [31:0] $end
$scope function prev $end
$upscope $end
$scope begin genblk1 $end
$scope begin reverse_loop[0] $end
$upscope $end
$scope begin reverse_loop[1] $end
$upscope $end
$scope begin reverse_loop[2] $end
$upscope $end
$scope begin reverse_loop[3] $end
$upscope $end
$scope begin reverse_loop[4] $end
$upscope $end
$scope begin reverse_loop[5] $end
$upscope $end
$scope begin reverse_loop[6] $end
$upscope $end
$scope begin reverse_loop[7] $end
$upscope $end
$upscope $end
$scope begin loop[0] $end
$upscope $end
$scope begin loop[1] $end
$upscope $end
$scope begin loop[2] $end
$upscope $end
$scope begin loop[3] $end
$upscope $end
$scope begin loop[4] $end
$upscope $end
$scope begin loop[5] $end
$upscope $end
$scope begin loop[6] $end
$upscope $end
$scope begin loop[7] $end
$upscope $end
$scope begin loop[8] $end
$upscope $end
$scope begin loop[9] $end
$upscope $end
$scope begin loop[10] $end
$upscope $end
$scope begin loop[11] $end
$upscope $end
$scope begin loop[12] $end
$upscope $end
$scope begin loop[13] $end
$upscope $end
$scope begin loop[14] $end
$upscope $end
$scope begin loop[15] $end
$upscope $end
$scope begin loop[16] $end
$upscope $end
$scope begin loop[17] $end
$upscope $end
$scope begin loop[18] $end
$upscope $end
$scope begin loop[19] $end
$upscope $end
$scope begin loop[20] $end
$upscope $end
$scope begin loop[21] $end
$upscope $end
$scope begin loop[22] $end
$upscope $end
$scope begin loop[23] $end
$upscope $end
$scope begin loop[24] $end
$upscope $end
$scope begin loop[25] $end
$upscope $end
$scope begin loop[26] $end
$upscope $end
$scope begin loop[27] $end
$upscope $end
$scope begin loop[28] $end
$upscope $end
$scope begin loop[29] $end
$upscope $end
$scope begin loop[30] $end
$upscope $end
$scope begin loop[31] $end
$upscope $end
$upscope $end
$scope module U_fifo $end
$var wire 8 J data_in [7:0] $end
$var wire 1 ) data_in_clock $end
$var wire 1 > data_in_enable $end
$var wire 1 ? data_in_end $end
$var wire 1 @ data_in_reset $end
$var wire 10 K data_in_reset_address [9:0] $end
$var wire 1 C data_in_start $end
$var wire 1 * data_out_clock $end
$var wire 1 1 data_out_reset $end
$var wire 10 L data_out_reset_address [9:0] $end
$var wire 1 + reset $end
$var wire 1 ' data_out_enable $end
$var reg 11 M count [10:0] $end
$var reg 10 N data_in_address [9:0] $end
$var reg 8 O data_out [7:0] $end
$var reg 10 P data_out_address [9:0] $end
$var reg 1 & data_out_end $end
$var reg 1 $ data_out_start $end
$var reg 1 # full $end
$var reg 11 Q in_count [10:0] $end
$var reg 11 R out_count [10:0] $end
$upscope $end
$upscope $end
$scope module data $end
$var wire 1 ) clock $end
$var wire 8 S data_in [7:0] $end
$var reg 1 T data_in_enable $end
$var reg 8 U data_out [7:0] $end
$var reg 1 ! data_out_enable $end
$var integer 32 V fails [31:0] $end
$var integer 32 W passes [31:0] $end
$scope task assert $end
$var reg 1 X condition $end
$var reg 801 Y message [800:0] $end
$upscope $end
$scope task display $end
$upscope $end
$scope task sync_assert $end
$var reg 1 Z condition $end
$var reg 801 [ message [800:0] $end
$upscope $end
$scope task sync_read $end
$var reg 8 \ data [7:0] $end
$upscope $end
$scope task sync_write $end
$var reg 8 ] data [7:0] $end
$upscope $end
$upscope $end
$scope module data_out $end
$var wire 1 * clock $end
$var wire 8 ^ data_in [7:0] $end
$var reg 1 ' data_in_enable $end
$var reg 8 _ data_out [7:0] $end
$var reg 1 ` data_out_enable $end
$var integer 32 a fails [31:0] $end
$var integer 32 b passes [31:0] $end
$scope task assert $end
$var reg 1 c condition $end
$var reg 801 d message [800:0] $end
$upscope $end
$scope task display $end
$upscope $end
$scope task sync_assert $end
$var reg 1 e condition $end
$var reg 801 f message [800:0] $end
$upscope $end
$scope task sync_read $end
$var reg 8 g data [7:0] $end
$upscope $end
$scope task sync_write $end
$var reg 8 h data [7:0] $end
$upscope $end
$upscope $end
$scope module data_out_end $end
$var wire 1 * clock $end
$var wire 1 & data_in $end
$var reg 1 i data_in_enable $end
$var reg 1 j data_out $end
$var reg 1 k data_out_enable $end
$var integer 32 l fails [31:0] $end
$var integer 32 m passes [31:0] $end
$scope task assert $end
$var reg 1 n condition $end
$var reg 801 o message [800:0] $end
$upscope $end
$scope task display $end
$upscope $end
$scope task sync_assert $end
$var reg 1 p condition $end
$var reg 801 q message [800:0] $end
$upscope $end
$scope task sync_read $end
$var reg 1 r data $end
$upscope $end
$scope task sync_write $end
$var reg 1 s data $end
$upscope $end
$upscope $end
$scope module data_out_start $end
$var wire 1 * clock $end
$var wire 1 $ data_in $end
$var reg 1 t data_in_enable $end
$var reg 1 u data_out $end
$var reg 1 v data_out_enable $end
$var integer 32 w fails [31:0] $end
$var integer 32 x passes [31:0] $end
$scope task assert $end
$var reg 1 y condition $end
$var reg 801 z message [800:0] $end
$upscope $end
$scope task display $end
$upscope $end
$scope task sync_assert $end
$var reg 1 { condition $end
$var reg 801 | message [800:0] $end
$upscope $end
$scope task sync_read $end
$var reg 1 } data $end
$upscope $end
$scope task sync_write $end
$var reg 1 ~ data $end
$upscope $end
$upscope $end
$scope module util $end
$var wire 1 ) clock $end
$var wire 1 !" data_in $end
$var reg 1 "" data_in_enable $end
$var reg 1 #" data_out $end
$var reg 1 $" data_out_enable $end
$var integer 32 %" fails [31:0] $end
$var integer 32 &" passes [31:0] $end
$scope task assert $end
$var reg 1 '" condition $end
$var reg 801 (" message [800:0] $end
$upscope $end
$scope task display $end
$upscope $end
$scope task sync_assert $end
$var reg 1 )" condition $end
$var reg 801 *" message [800:0] $end
$upscope $end
$scope task sync_read $end
$var reg 1 +" data $end
$upscope $end
$scope task sync_write $end
$var reg 1 ," data $end
$upscope $end
$upscope $end
$upscope $end
$scope module rx_sm_tb $end
$scope module U_rx_sm $end
$scope module U_crc $end
$scope function prev $end
$upscope $end
$scope begin genblk1 $end
$scope begin reverse_loop[0] $end
$upscope $end
$scope begin reverse_loop[1] $end
$upscope $end
$scope begin reverse_loop[2] $end
$upscope $end
$scope begin reverse_loop[3] $end
$upscope $end
$scope begin reverse_loop[4] $end
$upscope $end
$scope begin reverse_loop[5] $end
$upscope $end
$scope begin reverse_loop[6] $end
$upscope $end
$scope begin reverse_loop[7] $end
$upscope $end
$upscope $end
$scope begin loop[0] $end
$upscope $end
$scope begin loop[1] $end
$upscope $end
$scope begin loop[2] $end
$upscope $end
$scope begin loop[3] $end
$upscope $end
$scope begin loop[4] $end
$upscope $end
$scope begin loop[5] $end
$upscope $end
$scope begin loop[6] $end
$upscope $end
$scope begin loop[7] $end
$upscope $end
$scope begin loop[8] $end
$upscope $end
$scope begin loop[9] $end
$upscope $end
$scope begin loop[10] $end
$upscope $end
$scope begin loop[11] $end
$upscope $end
$scope begin loop[12] $end
$upscope $end
$scope begin loop[13] $end
$upscope $end
$scope begin loop[14] $end
$upscope $end
$scope begin loop[15] $end
$upscope $end
$scope begin loop[16] $end
$upscope $end
$scope begin loop[17] $end
$upscope $end
$scope begin loop[18] $end
$upscope $end
$scope begin loop[19] $end
$upscope $end
$scope begin loop[20] $end
$upscope $end
$scope begin loop[21] $end
$upscope $end
$scope begin loop[22] $end
$upscope $end
$scope begin loop[23] $end
$upscope $end
$scope begin loop[24] $end
$upscope $end
$scope begin loop[25] $end
$upscope $end
$scope begin loop[26] $end
$upscope $end
$scope begin loop[27] $end
$upscope $end
$scope begin loop[28] $end
$upscope $end
$scope begin loop[29] $end
$upscope $end
$scope begin loop[30] $end
$upscope $end
$scope begin loop[31] $end
$upscope $end
$upscope $end
$scope module U_fifo $end
$upscope $end
$upscope $end
$upscope $end
$enddefinitions $end
#0
$dumpvars
x,"
x+"
bx *"
x)"
bx ("
x'"
b0 &"
b0 %"
0$"
0#"
0""
0!"
x~
x}
bx |
x{
bx z
xy
b0 x
b0 w
0v
0u
0t
xs
xr
bx q
xp
bx o
xn
b0 m
b0 l
0k
0j
0i
bx h
bx g
bx f
xe
bx d
xc
b0 b
b0 a
0`
b0 _
bx ^
bx ]
bx \
bx [
xZ
bx Y
xX
b0 W
b0 V
b0 U
0T
bz S
bx R
bx Q
bx P
bx O
bx N
bx M
bz L
bx K
bx J
bx I
b0 H
b0 G
xF
xE
bx D
xC
b0 B
bx A
x@
0?
x>
bx =
x<
bx ;
bx :
09
bx 8
bx 7
bx 6
bx 5
bx 4
b0 3
bz 2
z1
bx 0
x/
x.
bx -
0,
1+
0*
0)
x(
0'
x&
bx %
x$
x#
b0 "
0!
$end
#5000
0<
0@
b0 J
0C
0>
0E
1F
b0 R
b0 5
b0 P
b0 %
b0 6
b0 O
b0 ^
0#
b0 Q
b0 7
b0 N
b0 D
b0 :
0(
b0 ;
b0 A
b11111111111111111111111111111111 8
b11111111111111111111111111111111 I
1*
1)
#10000
0*
0)
#15000
b0 4
b0 M
b1 D
b10101010 G
b1 B
1*
1)
1!
b1010101 "
b1010101 3
b1010101 H
b1010101 U
b1010101 ]
b0 0
b1 &"
b1000100011000010111010001100001001000000110000101110110011000010110100101101100011000010110001001101100011001010010000001101110011011110111010000100000011100110110010101110100 ("
1'"
0+
#16000
b1 0
b1010101 "
b1010101 3
b1010101 H
b1010101 U
1!
#20000
0*
0)
#25000
b1010101 :
1*
1)
#26000
b10 0
b1010101 "
b1010101 3
b1010101 H
b1010101 U
1!
#30000
0*
0)
#35000
b101010101010101 :
1*
1)
#36000
b11 0
b1010101 "
b1010101 3
b1010101 H
b1010101 U
1!
#40000
0*
0)
#45000
b10101010101010101010101 :
1*
1)
#46000
b100 0
b1010101 "
b1010101 3
b1010101 H
b1010101 U
1!
#50000
0*
0)
#55000
b1010101010101010101010101010101 :
1*
1)
#56000
b101 0
b1010101 "
b1010101 3
b1010101 H
b1010101 U
1!
#60000
0*
0)
#65000
b1010101 J
b101010101010101010101010101010101010101 :
1*
1)
#66000
b110 0
b1010101 "
b1010101 3
b1010101 H
b1010101 U
1!
#70000
0*
0)
#75000
1*
1)
#76000
b0 =
b0 K
19
b10101011 G
b10 B
b11010101 ]
b111 0
b11010101 "
b11010101 3
b11010101 H
b11010101 U
1!
#80000
0*
0)
#85000
09
1<
b10 D
b101010101010101010101010101010111010101 :
1*
1)
#86000
b11111111 G
b11111111 ]
b1000 0
b11111111 "
b11111111 3
b11111111 H
b11111111 U
1!
#90000
0*
0)
#95000
b101010101010101010101011101010111111111 :
b11111111111111111111111100000000 8
b11111111111111111111111100000000 I
b1 A
b1 ;
1*
1)
#96000
b1001 0
b11111111 "
b11111111 3
b11111111 H
b11111111 U
1!
#100000
0*
0)
#105000
b11111111111111110000000000000000 8
b11111111111111110000000000000000 I
b101010101010101110101011111111111111111 :
b10 ;
b10 A
1*
1)
#106000
b1010 0
b11111111 "
b11111111 3
b11111111 H
b11111111 U
1!
#110000
0*
0)
#115000
b101010111010101111111111111111111111111 :
b11111111000000000000000000000000 8
b11111111000000000000000000000000 I
b11 A
b11 ;
1*
1)
#116000
b1011 0
b11111111 "
b11111111 3
b11111111 H
b11111111 U
1!
#120000
0*
0)
#125000
b11010101 J
b0 8
b0 I
b1101010111111111111111111111111111111111 :
b100 ;
b100 A
1*
1)
#126000
b1100 0
b11111111 "
b11111111 3
b11111111 H
b11111111 U
1!
#130000
0*
0)
#135000
b11111111 J
b1111111111111111111111111111111111111111 :
b10110001111101110100000010110100 8
b10110001111101110100000010110100 I
1C
1>
b101 A
b101 ;
1*
1)
#136000
b1101 0
b11111111 "
b11111111 3
b11111111 H
b11111111 U
1!
#140000
0*
0)
#145000
b11111111010010000110010001111101 8
b11111111010010000110010001111101 I
b1 Q
b1 7
b1 N
0C
b110 ;
b110 A
1*
1)
#146000
b1011 G
b11010000 ]
b1110 0
b11010000 "
b11010000 3
b11010000 H
b11010000 U
1!
#150000
0*
0)
#155000
b1 4
b1 M
b1111111111111111111111111111111111010000 :
b10 Q
b10 7
b10 N
b11010010110110001111011011010101 8
b11010010110110001111011011010101 I
b111 A
b111 ;
1*
1)
#156000
b1010 G
b1010000 ]
b1111 0
b1010000 "
b1010000 3
b1010000 H
b1010000 U
1!
#160000
0*
0)
#165000
b10 4
b10 M
b11101111011001010111001101010001 8
b11101111011001010111001101010001 I
b11 Q
b11 7
b11 N
b1111111111111111111111111101000001010000 :
b1000 ;
b1000 A
1*
1)
#166000
b10011001 G
b10011001 ]
b10000 0
b10011001 "
b10011001 3
b10011001 H
b10011001 U
1!
#170000
0*
0)
#175000
b11 4
b11 M
b1111111111111111110100000101000010011001 :
b100 Q
b100 7
b100 N
b10011111010000010000000101010101 8
b10011111010000010000000101010101 I
b1001 A
b1001 ;
1*
1)
#176000
b11001 G
b10011000 ]
b10001 0
b10011000 "
b10011000 3
b10011000 H
b10011000 U
1!
#180000
0*
0)
#185000
b100 4
b100 M
b110010100010111111100001011100 8
b110010100010111111100001011100 I
b101 Q
b101 7
b101 N
b1111111111010000010100001001100110011000 :
b1010 ;
b1010 A
1*
1)
#186000
b1101001 G
b10010110 ]
b10010 0
b10010110 "
b10010110 3
b10010110 H
b10010110 U
1!
#190000
0*
0)
#195000
b11010000 J
b101 4
b101 M
b1101000001010000100110011001100010010110 :
b110 Q
b110 7
b110 N
b11011000001001000011110001100110 8
b11011000001001000011110001100110 I
b1011 A
b1011 ;
1*
1)
#196000
b110001 G
b10001100 ]
b10011 0
b10001100 "
b10001100 3
b10001100 H
b10001100 U
1!
#200000
0*
0)
#205000
b1010000 J
b110 4
b110 M
b11000011010111001011000001110110 8
b11000011010111001011000001110110 I
b111 Q
b111 7
b111 N
b101000010011001100110001001011010001100 :
b1100 ;
b1100 A
1*
1)
#206000
b10000 G
b1000 ]
b10100 0
b1000 "
b1000 3
b1000 H
b1000 U
1!
#210000
0*
0)
#215000
b10011001 J
b111 4
b111 M
b1001100110011000100101101000110000001000 :
b1000 Q
b1000 7
b1000 N
b1000000011010000001101100110000 8
b1000000011010000001101100110000 I
b1101 A
b1101 ;
1*
1)
#216000
b0 G
b0 ]
b10101 0
b0 "
b0 3
b0 H
b0 U
1!
#220000
0*
0)
#225000
b10011000 J
b1000 4
b1000 M
b1011100100111010100000001110111 8
b1011100100111010100000001110111 I
b1001 Q
b1001 7
b1001 N
b1001100010010110100011000000100000000000 :
b1110 ;
b1110 A
1*
1)
#226000
b10100010 G
b1000101 "
b1000101 3
b1000101 H
b1000101 U
b1000101 ]
b10110 0
1!
#230000
0*
0)
#235000
b10010110 J
b1001 4
b1001 M
b1001011010001100000010000000000001000101 :
b1010 Q
b1010 7
b1010 N
b101000011101100010101000000011 8
b101000011101100010101000000011 I
b1111 A
b1111 ;
1*
1)
#236000
b0 G
b0 ]
b10111 0
b0 "
b0 3
b0 H
b0 U
1!
#240000
0*
0)
#245000
b10001100 J
b1010 4
b1010 M
b11001000000000010101100001011000 8
b11001000000000010101100001011000 I
b1011 Q
b1011 7
b1011 N
b1000110000001000000000000100010100000000 :
b10000 ;
b10000 A
1*
1)
#246000
b11000 0
1!
#250000
0*
0)
#255000
b1000 J
b1011 4
b1011 M
b100000000000010001010000000000000000 :
b1100 Q
b1100 7
b1100 N
b1111010110110100010010100100001 8
b1111010110110100010010100100001 I
b10001 A
b10001 ;
1*
1)
#256000
b1110010 G
b1001110 "
b1001110 3
b1001110 H
b1001110 U
b1001110 ]
b11001 0
1!
#260000
0*
0)
#265000
b0 J
b1100 4
b1100 M
b11111100001011011100110010111000 8
b11111100001011011100110010111000 I
b1101 Q
b1101 7
b1101 N
b1000101000000000000000001001110 :
b10010 ;
b10010 A
1*
1)
#266000
b1000100 G
b100010 ]
b11010 0
b100010 "
b100010 3
b100010 H
b100010 U
1!
#270000
0*
0)
#275000
b1000101 J
b1101 4
b1101 M
b100010100000000000000000100111000100010 :
b1110 Q
b1110 7
b1110 N
b10110110111110101101100011000110 8
b10110110111110101101100011000110 I
b10011 A
b10011 ;
1*
1)
#276000
b10110100 G
b101101 ]
b11011 0
b101101 "
b101101 3
b101101 H
b101101 U
1!
#280000
0*
0)
#285000
b0 J
b1110 4
b1110 M
b11110011010110101111110101101110 8
b11110011010110101111110101101110 I
b1111 Q
b1111 7
b1111 N
b10011100010001000101101 :
b10100 ;
b10100 A
1*
1)
#286000
b0 G
b0 ]
b11100 0
b0 "
b0 3
b0 H
b0 U
1!
#290000
0*
0)
#295000
b1111 4
b1111 M
b1001110001000100010110100000000 :
b10000 Q
b10000 7
b10000 N
b11011110000001101011010111010000 8
b11011110000001101011010111010000 I
b10101 A
b10101 ;
1*
1)
#296000
b11101 0
1!
#300000
0*
0)
#305000
b1001110 J
b10000 4
b10000 M
b101011101000000011101111100011 8
b101011101000000011101111100011 I
b10001 Q
b10001 7
b10001 N
b100111000100010001011010000000000000000 :
b10110 ;
b10110 A
1*
1)
#306000
b1 G
b10000000 "
b10000000 3
b10000000 H
b10000000 U
b10000000 ]
b11110 0
1!
#310000
0*
0)
#315000
b100010 J
b10001 4
b10001 M
b10001000101101000000000000000010000000 :
b10010 Q
b10010 7
b10010 N
b10111100100101000001100110110 8
b10111100100101000001100110110 I
b10111 A
b10111 ;
1*
1)
#316000
b10001000 G
b10001 ]
b11111 0
b10001 "
b10001 3
b10001 H
b10001 U
1!
#320000
0*
0)
#325000
b101101 J
b10010 4
b10010 M
b10001111110100011011000000100011 8
b10001111110100011011000000100011 I
b10011 Q
b10011 7
b10011 N
b10110100000000000000001000000000010001 :
b11000 ;
b11000 A
1*
1)
#326000
b10101111 G
b11110101 ]
b100000 0
b11110101 "
b11110101 3
b11110101 H
b11110101 U
1!
#330000
0*
0)
#335000
b0 J
b10011 4
b10011 M
b100000000001000111110101 :
b10100 Q
b10100 7
b10100 N
b1001001100100111001010111100000 8
b1001001100100111001010111100000 I
b11001 A
b11001 ;
1*
1)
#336000
b10000100 G
b100001 ]
b100001 0
b100001 "
b100001 3
b100001 H
b100001 U
1!
#340000
0*
0)
#345000
b10100 4
b10100 M
b11111111110100101111011001001010 8
b11111111110100101111011001001010 I
b10101 Q
b10101 7
b10101 N
b10000000000100011111010100100001 :
b11010 ;
b11010 A
1*
1)
#346000
b10010101 G
b10101001 ]
b100010 0
b10101001 "
b10101001 3
b10101001 H
b10101001 U
1!
#350000
0*
0)
#355000
b10000000 J
b10101 4
b10101 M
b1000000000010001111101010010000110101001 :
b10110 Q
b10110 7
b10110 N
b1010001110110010101101001000001 8
b1010001110110010101101001000001 I
b11011 A
b11011 ;
1*
1)
#356000
b1111111 G
b11111110 ]
b100011 0
b11111110 "
b11111110 3
b11111110 H
b11111110 U
1!
#360000
0*
0)
#365000
b10001 J
b10110 4
b10110 M
b1111101111101110101011111101010 8
b1111101111101110101011111101010 I
b10111 Q
b10111 7
b10111 N
b1000111110101001000011010100111111110 :
b11100 ;
b11100 A
1*
1)
#366000
b11110011 G
b11001111 ]
b100100 0
b11001111 "
b11001111 3
b11001111 H
b11001111 U
1!
#370000
0*
0)
#375000
b11110101 J
b10111 4
b10111 M
b1111010100100001101010011111111011001111 :
b11000 Q
b11000 7
b11000 N
b10100010110101011010101011100100 8
b10100010110101011010101011100100 I
b11101 A
b11101 ;
1*
1)
#376000
b11001010 G
b1010011 ]
b100101 0
b1010011 "
b1010011 3
b1010011 H
b1010011 U
1!
#380000
0*
0)
#385000
b100001 J
b11000 4
b11000 M
b1011111000001111100111100101111 8
b1011111000001111100111100101111 I
b11001 Q
b11001 7
b11001 N
b10000110101001111111101100111101010011 :
b11110 ;
b11110 A
1*
1)
#386000
b10010101 G
b10101001 ]
b100110 0
b10101001 "
b10101001 3
b10101001 H
b10101001 U
1!
#390000
0*
0)
#395000
b10101001 J
b11001 4
b11001 M
b1010100111111110110011110101001110101001 :
b11010 Q
b11010 7
b11010 N
b1110101110011110110100101001111 8
b1110101110011110110100101001111 I
b11111 A
b11111 ;
1*
1)
#396000
b1111111 G
b11111110 ]
b100111 0
b11111110 "
b11111110 3
b11111110 H
b11111110 U
1!
#400000
0*
0)
#405000
b11111110 J
b11010 4
b11010 M
b11100000111000111001100111010110 8
b11100000111000111001100111010110 I
b11011 Q
b11011 7
b11011 N
b1111111011001111010100111010100111111110 :
b100000 ;
b100000 A
1*
1)
#406000
b11111111 G
b11111111 ]
b101000 0
b11111111 "
b11111111 3
b11111111 H
b11111111 U
1!
#410000
0*
0)
#415000
b11001111 J
b11011 4
b11011 M
b1100111101010011101010011111111011111111 :
b11100 Q
b11100 7
b11100 N
b10010111110001111011000011001101 8
b10010111110001111011000011001101 I
b100001 A
b100001 ;
1*
1)
#416000
b101001 0
b11111111 "
b11111111 3
b11111111 H
b11111111 U
1!
#420000
0*
0)
#425000
b1010011 J
b11100 4
b11100 M
b1001101000111011110011000101111 8
b1001101000111011110011000101111 I
b11101 Q
b11101 7
b11101 N
b101001110101001111111101111111111111111 :
b100010 ;
b100010 A
1*
1)
#426000
b0 G
b0 ]
b101010 0
b0 "
b0 3
b0 H
b0 U
1!
#430000
0*
0)
#435000
b10101001 J
b11101 4
b11101 M
b1010100111111110111111111111111100000000 :
b11110 Q
b11110 7
b11110 N
b11000101011011101100110100100 8
b11000101011011101100110100100 I
b100011 A
b100011 ;
1*
1)
#436000
b10010001 G
b10001001 "
b10001001 3
b10001001 H
b10001001 U
b10001001 ]
b101011 0
1!
#440000
0*
0)
#445000
b11111110 J
b11110 4
b11110 M
b11100110000111001011010011100001 8
b11100110000111001011010011100001 I
b11111 Q
b11111 7
b11111 N
b1111111011111111111111110000000010001001 :
b100100 ;
b100100 A
1*
1)
#446000
b0 G
b0 ]
b101100 0
b0 "
b0 3
b0 H
b0 U
1!
#450000
0*
0)
#455000
b11111111 J
b11111 4
b11111 M
b1111111111111111000000001000100100000000 :
b100000 Q
b100000 7
b100000 N
b11000011100110111000101011001011 8
b11000011100110111000101011001011 I
b100101 A
b100101 ;
1*
1)
#456000
b10010001 G
b10001001 "
b10001001 3
b10001001 H
b10001001 U
b10001001 ]
b101101 0
1!
#460000
0*
0)
#465000
b100000 4
b100000 M
b11101010100111110101101101101001 8
b11101010100111110101101101101001 I
b100001 Q
b100001 7
b100001 N
b1111111100000000100010010000000010001001 :
b100110 ;
b100110 A
1*
1)
#466000
b0 G
b0 ]
b101110 0
b0 "
b0 3
b0 H
b0 U
1!
#470000
0*
0)
#475000
b0 J
b100001 4
b100001 M
b10001001000000001000100100000000 :
b100010 Q
b100010 7
b100010 N
b1110101011110001001100110101111 8
b1110101011110001001100110101111 I
b100111 A
b100111 ;
1*
1)
#476000
b1011100 G
b111010 "
b111010 3
b111010 H
b111010 U
b111010 ]
b101111 0
1!
#480000
0*
0)
#485000
b10001001 J
b100010 4
b100010 M
b11000010011100111110100111101111 8
b11000010011100111110100111101111 I
b100011 Q
b100011 7
b100011 N
b1000100100000000100010010000000000111010 :
b101000 ;
b101000 A
1*
1)
#486000
b1011110 G
b1111010 ]
b110000 0
b1111010 "
b1111010 3
b1111010 H
b1111010 U
1!
#490000
0*
0)
#495000
b0 J
b100011 4
b100011 M
b10001001000000000011101001111010 :
b100100 Q
b100100 7
b100100 N
b1100011111110000100111111111010 8
b1100011111110000100111111111010 I
b101001 A
b101001 ;
1*
1)
#496000
b1010101 G
b10101010 ]
b110001 0
b10101010 "
b10101010 3
b10101010 H
b10101010 U
1!
#500000
0*
0)
#505000
b10001001 J
b100100 4
b100100 M
b110110111110111101101000100010 8
b110110111110111101101000100010 I
b100101 Q
b100101 7
b100101 N
b1000100100000000001110100111101010101010 :
b101010 ;
b101010 A
1*
1)
#506000
b1101 G
b10110000 ]
b110010 0
b10110000 "
b10110000 3
b10110000 H
b10110000 U
1!
#510000
0*
0)
#515000
b0 J
b100101 4
b100101 M
b111010011110101010101010110000 :
b100110 Q
b100110 7
b100110 N
b100101000111000010011110001 8
b100101000111000010011110001 I
b101011 A
b101011 ;
1*
1)
#516000
b11010111 G
b11101011 ]
b110011 0
b11101011 "
b11101011 3
b11101011 H
b11101011 U
1!
#520000
0*
0)
#525000
b111010 J
b100110 4
b100110 M
b10111111010111001001110000110000 8
b10111111010111001001110000110000 I
b100111 Q
b100111 7
b100111 N
b11101001111010101010101011000011101011 :
b101100 ;
b101100 A
1*
1)
#526000
b10000000 G
b1 ]
b110100 0
b1 "
b1 3
b1 H
b1 U
1!
#530000
0*
0)
#535000
b1111010 J
b100111 4
b100111 M
b111101010101010101100001110101100000001 :
b101000 Q
b101000 7
b101000 N
b10110000111000011110000000101101 8
b10110000111000011110000000101101 I
b101101 A
b101101 ;
1*
1)
#536000
b1000 G
b10000 ]
b110101 0
b10000 "
b10000 3
b10000 H
b10000 U
1!
#540000
0*
0)
#545000
b10101010 J
b101000 4
b101000 M
b1111010110101100100110111000110 8
b1111010110101100100110111000110 I
b101001 Q
b101001 7
b101001 N
b1010101010110000111010110000000100010000 :
b101110 ;
b101110 A
1*
1)
#546000
b0 G
b0 ]
b110110 0
b0 "
b0 3
b0 H
b0 U
1!
#550000
0*
0)
#555000
b10110000 J
b101001 4
b101001 M
b1011000011101011000000010001000000000000 :
b101010 Q
b101010 7
b101010 N
b11001011100110000110100110001 8
b11001011100110000110100110001 I
b101111 A
b101111 ;
1*
1)
#556000
b10000000 G
b1 "
b1 3
b1 H
b1 U
b1 ]
b110111 0
1!
#560000
0*
0)
#565000
b11101011 J
b101010 4
b101010 M
b1110100110110011111101010010001 8
b1110100110110011111101010010001 I
b101011 Q
b101011 7
b101011 N
b1110101100000001000100000000000000000001 :
b110000 ;
b110000 A
1*
1)
#566000
b0 G
b0 ]
b111000 0
b0 "
b0 3
b0 H
b0 U
1!
#570000
0*
0)
#575000
b1 J
b101011 4
b101011 M
b100010000000000000000000100000000 :
b101100 Q
b101100 7
b101100 N
b101010010010101111101000111011 8
b101010010010101111101000111011 I
b110001 A
b110001 ;
1*
1)
#576000
b111001 0
1!
#580000
0*
0)
#585000
b10000 J
b101100 4
b101100 M
b11111101010100110101101100110110 8
b11111101010100110101101100110110 I
b101101 Q
b101101 7
b101101 N
b1000000000000000000010000000000000000 :
b110010 ;
b110010 A
1*
1)
#586000
b111010 0
1!
#590000
0*
0)
#595000
b0 J
b101101 4
b101101 M
b1000000000000000000000000 :
b101110 Q
b101110 7
b101110 N
b11101011001011100100110111011010 8
b11101011001011100100110111011010 I
b110011 A
b110011 ;
1*
1)
#596000
b111011 0
1!
#600000
0*
0)
#605000
b1 J
b101110 4
b101110 M
b11000000101011110011011100011000 8
b11000000101011110011011100011000 I
b101111 Q
b101111 7
b101111 N
b100000000000000000000000000000000 :
b110100 ;
b110100 A
1*
1)
#606000
b111100 0
1!
#610000
0*
0)
#615000
b0 J
b101111 4
b101111 M
b0 :
b110000 Q
b110000 7
b110000 N
b11110010101111011000100010011001 8
b11110010101111011000100010011001 I
b110101 A
b110101 ;
1*
1)
#616000
b111101 0
1!
#620000
0*
0)
#625000
b110000 4
b110000 M
b111101101100100101111101100111 8
b111101101100100101111101100111 I
b110001 Q
b110001 7
b110001 N
b110110 ;
b110110 A
1*
1)
#626000
b100 G
b100000 "
b100000 3
b100000 H
b100000 U
b100000 ]
b111110 0
1!
#630000
0*
0)
#635000
b110001 4
b110001 M
b100000 :
b110010 Q
b110010 7
b110010 N
b1000100101001001111101010011111 8
b1000100101001001111101010011111 I
b110111 A
b110111 ;
1*
1)
#636000
b10100010 G
b1000101 ]
b111111 0
b1000101 "
b1000101 3
b1000101 H
b1000101 U
1!
#640000
0*
0)
#645000
b110010 4
b110010 M
b1111011110101011111010011001011 8
b1111011110101011111010011001011 I
b110011 Q
b110011 7
b110011 N
b10000001000101 :
b111000 ;
b111000 A
1*
1)
#646000
b10110010 G
b1001101 ]
b1000000 0
b1001101 "
b1001101 3
b1001101 H
b1001101 U
1!
#650000
0*
0)
